r_econometrics.knit
…
# Переглянемо перші декілька значень
head(iris)
##   Sepal.Length Sepal.Width Petal.Length Petal.Width Species
## 1          5.1         3.5          1.4         0.2  setosa
## 2          4.9         3.0          1.4         0.2  setosa
## 3          4.7         3.2          1.3         0.2  setosa
## 4          4.6         3.1          1.5         0.2  setosa
## 5          5.0         3.6          1.4         0.2  setosa
## 6          5.4         3.9          1.7         0.4  setosa

Давайте створемо його альтернативу у вигляді тібблу:

iris_tbl <- as_tibble(iris)
iris_tbl
## # A tibble: 150 x 5
##    Sepal.Length Sepal.Width Petal.Length Petal.Width Species
##           <dbl>       <dbl>        <dbl>       <dbl> <fct>  
##  1          5.1         3.5          1.4         0.2 setosa 
##  2          4.9         3            1.4         0.2 setosa 
##  3          4.7         3.2          1.3         0.2 setosa 
##  4          4.6         3.1          1.5         0.2 setosa 
##  5          5           3.6          1.4         0.2 setosa 
##  6          5.4         3.9          1.7         0.4 setosa 
##  7          4.6         3.4          1.4         0.3 setosa 
##  8          5           3.4          1.5         0.2 setosa 
##  9          4.4         2.9          1.4         0.2 setosa 
## 10          4.9         3.1          1.5         0.1 setosa 
## # ... with 140 more rows
…
створювати нові змінні

сортувати дані

проводити фільтрацію даних

агрегування даних і багато іншого.

В якості прикладу роботи з пакетом dplyr пропоную використати датасет gapminder з однойменного пакету. В ньому збережена інформація про ВВП, очікувану тривалість життя при народженні та населення для 142 країн світу з 1952 по 2007 роки.

# Підключаємо пакет (не забудьте його встановити) та подивимось на датасет
library(gapminder)
gapminder
## # A tibble: 1,704 x 6
##    country     continent  year lifeExp      pop gdpPercap
##    <fct>       <fct>     <int>   <dbl>    <int>     <dbl>
##  1 Afghanistan Asia       1952    28.8  8425333      779.
##  2 Afghanistan Asia       1957    30.3  9240934      821.
##  3 Afghanistan Asia       1962    32.0 10267083      853.
##  4 Afghanistan Asia       1967    34.0 11537966      836.
##  5 Afghanistan Asia       1972    36.1 13079460      740.
##  6 Afghanistan Asia       1977    38.4 14880372      786.
##  7 Afghanistan Asia       1982    39.9 12881816      978.
##  8 Afghanistan Asia       1987    40.8 13867957      852.
##  9 Afghanistan Asia       1992    41.7 16317921      649.
## 10 Afghanistan Asia       1997    41.8 22227415      635.
## # ... with 1,694 more rows
…
Всі крім перших трьох:

gapminder %>% 
  slice(-(1:3))
## # A tibble: 1,701 x 6
##    country     continent  year lifeExp      pop gdpPercap
##    <fct>       <fct>     <int>   <dbl>    <int>     <dbl>
##  1 Afghanistan Asia       1967    34.0 11537966      836.
##  2 Afghanistan Asia       1972    36.1 13079460      740.
##  3 Afghanistan Asia       1977    38.4 14880372      786.
##  4 Afghanistan Asia       1982    39.9 12881816      978.
##  5 Afghanistan Asia       1987    40.8 13867957      852.
##  6 Afghanistan Asia       1992    41.7 16317921      649.
##  7 Afghanistan Asia       1997    41.8 22227415      635.
##  8 Afghanistan Asia       2002    42.1 25268405      727.
##  9 Afghanistan Asia       2007    43.8 31889923      975.
## 10 Albania     Europe     1952    55.2  1282697     1601.
## # ... with 1,691 more rows
…
2.3.4 dplyr::arrange()

Для впорядкування даних використовується функція arrange(). За замовчуванням сортування даних відбувається за зростанням.
Сортування по змінній ВВП на душу населення:

gapminder %>% 
  arrange(gdpPercap)
## # A tibble: 1,704 x 6
##    country          continent  year lifeExp      pop gdpPercap
##    <fct>            <fct>     <int>   <dbl>    <int>     <dbl>
##  1 Congo, Dem. Rep. Africa     2002    45.0 55379852      241.
##  2 Congo, Dem. Rep. Africa     2007    46.5 64606759      278.
##  3 Lesotho          Africa     1952    42.1   748747      299.
##  4 Guinea-Bissau    Africa     1952    32.5   580653      300.
##  5 Congo, Dem. Rep. Africa     1997    42.6 47798986      312.
##  6 Eritrea          Africa     1952    35.9  1438760      329.
##  7 Myanmar          Asia       1952    36.3 20092996      331 
##  8 Lesotho          Africa     1957    45.0   813338      336.
##  9 Burundi          Africa     1952    39.0  2445618      339.
## 10 Eritrea          Africa     1957    38.0  1542611      344.
## # ... with 1,694 more rows

Для того щоб сотувати дані за спаданням, використовується додаткова функція desc() в середині arrange():

gapminder %>% 
  arrange(desc(gdpPercap))
## # A tibble: 1,704 x 6
##    country   continent  year lifeExp     pop gdpPercap
##    <fct>     <fct>     <int>   <dbl>   <int>     <dbl>
##  1 Kuwait    Asia       1957    58.0  212846   113523.
##  2 Kuwait    Asia       1972    67.7  841934   109348.
##  3 Kuwait    Asia       1952    55.6  160000   108382.
##  4 Kuwait    Asia       1962    60.5  358266    95458.
##  5 Kuwait    Asia       1967    64.6  575003    80895.
##  6 Kuwait    Asia       1977    69.3 1140357    59265.
##  7 Norway    Europe     2007    80.2 4627926    49357.
##  8 Kuwait    Asia       2007    77.6 2505559    47307.
##  9 Singapore Asia       2007    80.0 4553009    47143.
## 10 Norway    Europe     2002    79.0 4535591    44684.
## # ... with 1,694 more rows

Якщо сортування за спаданням виконується по одній змінній, замість desc() можна використати знак -:

# Але працює це тільки у випадку використання однієї змінної!
gapminder %>% 
  arrange(-gdpPercap)
## # A tibble: 1,704 x 6
##    country   continent  year lifeExp     pop gdpPercap
##    <fct>     <fct>     <int>   <dbl>   <int>     <dbl>
##  1 Kuwait    Asia       1957    58.0  212846   113523.
##  2 Kuwait    Asia       1972    67.7  841934   109348.
##  3 Kuwait    Asia       1952    55.6  160000   108382.
##  4 Kuwait    Asia       1962    60.5  358266    95458.
##  5 Kuwait    Asia       1967    64.6  575003    80895.
##  6 Kuwait    Asia       1977    69.3 1140357    59265.
##  7 Norway    Europe     2007    80.2 4627926    49357.
##  8 Kuwait    Asia       2007    77.6 2505559    47307.
##  9 Singapore Asia       2007    80.0 4553009    47143.
## 10 Norway    Europe     2002    79.0 4535591    44684.
## # ... with 1,694 more rows

2.3.5 dplyr::select()

У випадках, коли змінних у данних дуже багато, є сенс відібрати тільки ті, з якими ви будете працювати. В таких випадках нам допоможе функція select(), хоча тільки такими задачами вона не обмежується.
У нашому випадку в наборі даних лише шість змінних, що в принципі небагато, але суть функції буде зрозуміла.
Відберемо, наприклад змінні по країнам та населенню:

gapminder %>% 
  select(country, pop)
## # A tibble: 1,704 x 2
##    country          pop
##    <fct>          <int>
##  1 Afghanistan  8425333
##  2 Afghanistan  9240934
##  3 Afghanistan 10267083
##  4 Afghanistan 11537966
##  5 Afghanistan 13079460
##  6 Afghanistan 14880372
##  7 Afghanistan 12881816
##  8 Afghanistan 13867957
##  9 Afghanistan 16317921
## 10 Afghanistan 22227415
## # ... with 1,694 more rows

Через двокрапку можна вказати послідовність з декількох стовпчиків для відбору:

gapminder %>% 
  select(country, lifeExp:gdpPercap)
## # A tibble: 1,704 x 4
##    country     lifeExp      pop gdpPercap
##    <fct>         <dbl>    <int>     <dbl>
##  1 Afghanistan    28.8  8425333      779.
##  2 Afghanistan    30.3  9240934      821.
##  3 Afghanistan    32.0 10267083      853.
##  4 Afghanistan    34.0 11537966      836.
##  5 Afghanistan    36.1 13079460      740.
##  6 Afghanistan    38.4 14880372      786.
##  7 Afghanistan    39.9 12881816      978.
##  8 Afghanistan    40.8 13867957      852.
##  9 Afghanistan    41.7 16317921      649.
## 10 Afghanistan    41.8 22227415      635.
## # ... with 1,694 more rows

Замість назв можна використовувати порядковий номер стовпчика (нагадую, що індексація в R починається з 1):

gapminder %>% 
  select(1, 4:6)
## # A tibble: 1,704 x 4
##    country     lifeExp      pop gdpPercap
##    <fct>         <dbl>    <int>     <dbl>
##  1 Afghanistan    28.8  8425333      779.
##  2 Afghanistan    30.3  9240934      821.
##  3 Afghanistan    32.0 10267083      853.
##  4 Afghanistan    34.0 11537966      836.
##  5 Afghanistan    36.1 13079460      740.
##  6 Afghanistan    38.4 14880372      786.
##  7 Afghanistan    39.9 12881816      978.
##  8 Afghanistan    40.8 13867957      852.
##  9 Afghanistan    41.7 16317921      649.
## 10 Afghanistan    41.8 22227415      635.
## # ... with 1,694 more rows

Коли змінних дійсно багато, простіше вказати змінні, які хочеться викинути. Для цього використовується знак - (для відкидання однієї змінної) і ! (для декількох, які необхідно помістити у вектор). Відкинемо змінну континенту:

# Відкидаємо одну змінну за допомогою `-`
gapminder %>% 
  select(-continent)
## # A tibble: 1,704 x 5
##    country      year lifeExp      pop gdpPercap
##    <fct>       <int>   <dbl>    <int>     <dbl>
##  1 Afghanistan  1952    28.8  8425333      779.
##  2 Afghanistan  1957    30.3  9240934      821.
##  3 Afghanistan  1962    32.0 10267083      853.
##  4 Afghanistan  1967    34.0 11537966      836.
##  5 Afghanistan  1972    36.1 13079460      740.
##  6 Afghanistan  1977    38.4 14880372      786.
##  7 Afghanistan  1982    39.9 12881816      978.
##  8 Afghanistan  1987    40.8 13867957      852.
##  9 Afghanistan  1992    41.7 16317921      649.
## 10 Afghanistan  1997    41.8 22227415      635.
## # ... with 1,694 more rows

Відкинемо змінну континенту та населення:

# Відкидаємо декілька змінних за допомогою `!`
gapminder %>% 
  select(!c(continent, pop))
## # A tibble: 1,704 x 4
##    country      year lifeExp gdpPercap
##    <fct>       <int>   <dbl>     <dbl>
##  1 Afghanistan  1952    28.8      779.
##  2 Afghanistan  1957    30.3      821.
##  3 Afghanistan  1962    32.0      853.
##  4 Afghanistan  1967    34.0      836.
##  5 Afghanistan  1972    36.1      740.
##  6 Afghanistan  1977    38.4      786.
##  7 Afghanistan  1982    39.9      978.
##  8 Afghanistan  1987    40.8      852.
##  9 Afghanistan  1992    41.7      649.
## 10 Afghanistan  1997    41.8      635.
## # ... with 1,694 more rows

Крім того, за допомогою функцій starts_with(), ends_with(), contains() та matches() ми можемо задавати специфічні умови відбору змінних.
Для відбору стовпчиків, які починаються на певний вираз використовується starts_with(). Відберемо змінні, які починаються на co:

gapminder %>% 
  select(starts_with("c"))
## # A tibble: 1,704 x 2
##    country     continent
##    <fct>       <fct>    
##  1 Afghanistan Asia     
##  2 Afghanistan Asia     
##  3 Afghanistan Asia     
##  4 Afghanistan Asia     
##  5 Afghanistan Asia     
##  6 Afghanistan Asia     
##  7 Afghanistan Asia     
##  8 Afghanistan Asia     
##  9 Afghanistan Asia     
## 10 Afghanistan Asia     
## # ... with 1,694 more rows

Змінні, які закінчуються на англійську літеру p:

gapminder %>% 
  select(ends_with("p"))
## # A tibble: 1,704 x 3
##    lifeExp      pop gdpPercap
##      <dbl>    <int>     <dbl>
##  1    28.8  8425333      779.
##  2    30.3  9240934      821.
##  3    32.0 10267083      853.
##  4    34.0 11537966      836.
##  5    36.1 13079460      740.
##  6    38.4 14880372      786.
##  7    39.9 12881816      978.
##  8    40.8 13867957      852.
##  9    41.7 16317921      649.
## 10    41.8 22227415      635.
## # ... with 1,694 more rows

Змінні, які містять англійську літеру x:

gapminder %>% 
  select(contains("x"))
## # A tibble: 1,704 x 1
##    lifeExp
##      <dbl>
##  1    28.8
##  2    30.3
##  3    32.0
##  4    34.0
##  5    36.1
##  6    38.4
##  7    39.9
##  8    40.8
##  9    41.7
## 10    41.8
## # ... with 1,694 more rows

При роботі з даними часто використовуються регулярні вирази (regular expression). Це певні патерни тексту, які відповідають певній умові. Ми можемо використовувати їх при відборі змінних за допомогою функції matches().
Наприклад відберемо стовпчики, які в назві містять літери op або ap:

gapminder %>% 
  select(matches("[oa]p"))
## # A tibble: 1,704 x 2
##         pop gdpPercap
##       <int>     <dbl>
##  1  8425333      779.
##  2  9240934      821.
##  3 10267083      853.
##  4 11537966      836.
##  5 13079460      740.
##  6 14880372      786.
##  7 12881816      978.
##  8 13867957      852.
##  9 16317921      649.
## 10 22227415      635.
## # ... with 1,694 more rows

Для більш детального ознайомлення з цією темою рекомендую роботу Friedl (2006).

За допомогою функції where() можна обирати змінні за їх типом. Наприклад відберемо факторні змінні:

# Зверніть увагу, що умова "is.factor" 
# вживається без дужок в середині where()
gapminder %>% 
  select(where(is.factor))
## # A tibble: 1,704 x 2
##    country     continent
##    <fct>       <fct>    
##  1 Afghanistan Asia     
##  2 Afghanistan Asia     
##  3 Afghanistan Asia     
##  4 Afghanistan Asia     
##  5 Afghanistan Asia     
##  6 Afghanistan Asia     
##  7 Afghanistan Asia     
##  8 Afghanistan Asia     
##  9 Afghanistan Asia     
## 10 Afghanistan Asia     
## # ... with 1,694 more rows

Або залишимо тільки числові змінні:

gapminder %>% 
  select(where(is.numeric))
## # A tibble: 1,704 x 4
##     year lifeExp      pop gdpPercap
##    <int>   <dbl>    <int>     <dbl>
##  1  1952    28.8  8425333      779.
##  2  1957    30.3  9240934      821.
##  3  1962    32.0 10267083      853.
##  4  1967    34.0 11537966      836.
##  5  1972    36.1 13079460      740.
##  6  1977    38.4 14880372      786.
##  7  1982    39.9 12881816      978.
##  8  1987    40.8 13867957      852.
##  9  1992    41.7 16317921      649.
## 10  1997    41.8 22227415      635.
## # ... with 1,694 more rows

Але і це ще не все: за допомогою функції select() та everything() можна змінювати позиції змінних у наборі даних. Спочатку ми вказуємо змінні, які хочемо помістити першими, після чого пишемо everything(). Наприклад, помістимо всі числові змінні на початку:

gapminder %>% 
  select(where(is.numeric), everything())
## # A tibble: 1,704 x 6
##     year lifeExp      pop gdpPercap country     continent
##    <int>   <dbl>    <int>     <dbl> <fct>       <fct>    
##  1  1952    28.8  8425333      779. Afghanistan Asia     
##  2  1957    30.3  9240934      821. Afghanistan Asia     
##  3  1962    32.0 10267083      853. Afghanistan Asia     
##  4  1967    34.0 11537966      836. Afghanistan Asia     
##  5  1972    36.1 13079460      740. Afghanistan Asia     
##  6  1977    38.4 14880372      786. Afghanistan Asia     
##  7  1982    39.9 12881816      978. Afghanistan Asia     
##  8  1987    40.8 13867957      852. Afghanistan Asia     
##  9  1992    41.7 16317921      649. Afghanistan Asia     
## 10  1997    41.8 22227415      635. Afghanistan Asia     
## # ... with 1,694 more rows

2.3.6 dplyr::relocate()

Насправді в dplyr є окрема функція для гнучкої зміни позиції — relocate(). За замовчуванням вона поміщає вказані змінні на перші позиції:

gapminder %>% 
  relocate(pop)
## # A tibble: 1,704 x 6
##         pop country     continent  year lifeExp gdpPercap
##       <int> <fct>       <fct>     <int>   <dbl>     <dbl>
##  1  8425333 Afghanistan Asia       1952    28.8      779.
##  2  9240934 Afghanistan Asia       1957    30.3      821.
##  3 10267083 Afghanistan Asia       1962    32.0      853.
##  4 11537966 Afghanistan Asia       1967    34.0      836.
##  5 13079460 Afghanistan Asia       1972    36.1      740.
##  6 14880372 Afghanistan Asia       1977    38.4      786.
##  7 12881816 Afghanistan Asia       1982    39.9      978.
##  8 13867957 Afghanistan Asia       1987    40.8      852.
##  9 16317921 Afghanistan Asia       1992    41.7      649.
## 10 22227415 Afghanistan Asia       1997    41.8      635.
## # ... with 1,694 more rows

У функції relocate() є два додаткових аргументи: .before() та .after(). Вони використовуються для вказування місця зміни позиції стовпчика:

# Помістимо стовпчик continent після year
gapminder %>% 
  relocate(continent, .after = year)
## # A tibble: 1,704 x 6
##    country      year continent lifeExp      pop gdpPercap
##    <fct>       <int> <fct>       <dbl>    <int>     <dbl>
##  1 Afghanistan  1952 Asia         28.8  8425333      779.
##  2 Afghanistan  1957 Asia         30.3  9240934      821.
##  3 Afghanistan  1962 Asia         32.0 10267083      853.
##  4 Afghanistan  1967 Asia         34.0 11537966      836.
##  5 Afghanistan  1972 Asia         36.1 13079460      740.
##  6 Afghanistan  1977 Asia         38.4 14880372      786.
##  7 Afghanistan  1982 Asia         39.9 12881816      978.
##  8 Afghanistan  1987 Asia         40.8 13867957      852.
##  9 Afghanistan  1992 Asia         41.7 16317921      649.
## 10 Afghanistan  1997 Asia         41.8 22227415      635.
## # ... with 1,694 more rows

# Помістимо стовпчик continent після year
gapminder %>% 
  relocate(lifeExp, .before = gdpPercap)
## # A tibble: 1,704 x 6
##    country     continent  year      pop lifeExp gdpPercap
##    <fct>       <fct>     <int>    <int>   <dbl>     <dbl>
##  1 Afghanistan Asia       1952  8425333    28.8      779.
##  2 Afghanistan Asia       1957  9240934    30.3      821.
##  3 Afghanistan Asia       1962 10267083    32.0      853.
##  4 Afghanistan Asia       1967 11537966    34.0      836.
##  5 Afghanistan Asia       1972 13079460    36.1      740.
##  6 Afghanistan Asia       1977 14880372    38.4      786.
##  7 Afghanistan Asia       1982 12881816    39.9      978.
##  8 Afghanistan Asia       1987 13867957    40.8      852.
##  9 Afghanistan Asia       1992 16317921    41.7      649.
## 10 Afghanistan Asia       1997 22227415    41.8      635.
## # ... with 1,694 more rows

Можна переміщати й одразу цілі групи:

# Помістимо всі цілочислові змінні після факторних
gapminder %>% 
  relocate(where(is.integer), .after = where(is.factor))
## # A tibble: 1,704 x 6
##    country     continent  year      pop lifeExp gdpPercap
##    <fct>       <fct>     <int>    <int>   <dbl>     <dbl>
##  1 Afghanistan Asia       1952  8425333    28.8      779.
##  2 Afghanistan Asia       1957  9240934    30.3      821.
##  3 Afghanistan Asia       1962 10267083    32.0      853.
##  4 Afghanistan Asia       1967 11537966    34.0      836.
##  5 Afghanistan Asia       1972 13079460    36.1      740.
##  6 Afghanistan Asia       1977 14880372    38.4      786.
##  7 Afghanistan Asia       1982 12881816    39.9      978.
##  8 Afghanistan Asia       1987 13867957    40.8      852.
##  9 Afghanistan Asia       1992 16317921    41.7      649.
## 10 Afghanistan Asia       1997 22227415    41.8      635.
## # ... with 1,694 more rows

# Помістимо всі факторні змінні після числових
gapminder %>% 
  relocate(where(is.numeric), .before = where(is.factor))
## # A tibble: 1,704 x 6
##     year lifeExp      pop gdpPercap country     continent
##    <int>   <dbl>    <int>     <dbl> <fct>       <fct>    
##  1  1952    28.8  8425333      779. Afghanistan Asia     
##  2  1957    30.3  9240934      821. Afghanistan Asia     
##  3  1962    32.0 10267083      853. Afghanistan Asia     
##  4  1967    34.0 11537966      836. Afghanistan Asia     
##  5  1972    36.1 13079460      740. Afghanistan Asia     
##  6  1977    38.4 14880372      786. Afghanistan Asia     
##  7  1982    39.9 12881816      978. Afghanistan Asia     
##  8  1987    40.8 13867957      852. Afghanistan Asia     
##  9  1992    41.7 16317921      649. Afghanistan Asia     
## 10  1997    41.8 22227415      635. Afghanistan Asia     
## # ... with 1,694 more rows
…
