3 Проста лінійна регресія | r_econometrics.knit
…
Регресант
Регресор

Коваріат

Зверніть увагу, що ми суб’єктивно оголосили, що на заробітну плату впливають зазначені показники. При альтернативних дослідженні і форма залежності, і перелік змінних може бути іншим. Та й взагалі, можливо ми захочемо пояснити вже рівень освіти за допомогою заробітної плати, досвіду роботи і навичок. Все це ми визначаємо на основі своїх знань, досвіду та доступної інформації.

В якості джерел даних можуть виступати:

Перехресні дані: дані зібрані по різним об’єктам дослідження (персонал, компанії, держави, сфери тощо). Часто такі дані були зібрані за допомогою простої випадкової вибірки.

library(tidyverse)
starwars
## # A tibble: 87 x 14
##    name     height  mass hair_color skin_color eye_color birth_year sex   gender
##    <chr>     <int> <dbl> <chr>      <chr>      <chr>          <dbl> <chr> <chr> 
##  1 Luke Sk~    172    77 blond      fair       blue            19   male  mascu~
##  2 C-3PO       167    75 <NA>       gold       yellow         112   none  mascu~
##  3 R2-D2        96    32 <NA>       white, bl~ red             33   none  mascu~
##  4 Darth V~    202   136 none       white      yellow          41.9 male  mascu~
##  5 Leia Or~    150    49 brown      light      brown           19   fema~ femin~
##  6 Owen La~    178   120 brown, gr~ light      blue            52   male  mascu~
##  7 Beru Wh~    165    75 brown      light      blue            47   fema~ femin~
##  8 R5-D4        97    32 <NA>       white, red red             NA   none  mascu~
##  9 Biggs D~    183    84 black      light      brown           24   male  mascu~
## 10 Obi-Wan~    182    77 auburn, w~ fair       blue-gray       57   male  mascu~
## # ... with 77 more rows, and 5 more variables: homeworld <chr>, species <chr>,
## #   films <list>, vehicles <list>, starships <list>

Часові ряди: дані по одному чи декількох об’єктах дослідження впродовж певного періоду часу (курси валют, ВВП, пасажиропотік тощо). Головною особливістю таких даних виступає часова впорядкованість (від минулого до сучасного) та частота даних (однаковий інтервал запису даних).

economics
## # A tibble: 574 x 6
##    date         pce    pop psavert uempmed unemploy
##    <date>     <dbl>  <dbl>   <dbl>   <dbl>    <dbl>
##  1 1967-07-01  507. 198712    12.6     4.5     2944
##  2 1967-08-01  510. 198911    12.6     4.7     2945
##  3 1967-09-01  516. 199113    11.9     4.6     2958
##  4 1967-10-01  512. 199311    12.9     4.9     3143
##  5 1967-11-01  517. 199498    12.8     4.7     3066
##  6 1967-12-01  525. 199657    11.8     4.8     3018
##  7 1968-01-01  531. 199808    11.7     5.1     2878
##  8 1968-02-01  534. 199920    12.3     4.5     3001
##  9 1968-03-01  544. 200056    11.7     4.1     2877
## 10 1968-04-01  544  200208    12.3     4.6     2709
## # ... with 564 more rows

Панельні дані: поєднуть в собі перехресні дані та часові ряди, вони показують, як об’єкти дослідження змінювались з часом.

library(gapminder)
gapminder
## # A tibble: 1,704 x 6
##    country     continent  year lifeExp      pop gdpPercap
##    <fct>       <fct>     <int>   <dbl>    <int>     <dbl>
##  1 Afghanistan Asia       1952    28.8  8425333      779.
##  2 Afghanistan Asia       1957    30.3  9240934      821.
##  3 Afghanistan Asia       1962    32.0 10267083      853.
##  4 Afghanistan Asia       1967    34.0 11537966      836.
##  5 Afghanistan Asia       1972    36.1 13079460      740.
##  6 Afghanistan Asia       1977    38.4 14880372      786.
##  7 Afghanistan Asia       1982    39.9 12881816      978.
##  8 Afghanistan Asia       1987    40.8 13867957      852.
##  9 Afghanistan Asia       1992    41.7 16317921      649.
## 10 Afghanistan Asia       1997    41.8 22227415      635.
## # ... with 1,694 more rows

Функція залежності \(f\) може мати різну форму та характер. Ми не знаємо її зазделегідь і намагаємось підібрати найкращий варіант з декількох альтернатив.

3.1 Проста лінійна регресія

Проста лінійна регресія — це модель, яка пояснює залежність між двома змінними за допомогою лінійного взаємозв’язку.

Роботу такої регресії краще пояснити на прикладі. В нашому розпорядженні є набір даних про вагу та зріст вибірки чоловіків та жінок:

weight_height <- read_csv("https://raw.githubusercontent.com/Aranaur/datasets/main/datasets/weight-height.csv")

weight_height
## # A tibble: 10,000 x 3
##    Gender Height Weight
##    <chr>   <dbl>  <dbl>
##  1 Male     73.8   242.
##  2 Male     68.8   162.
##  3 Male     74.1   213.
##  4 Male     71.7   220.
##  5 Male     69.9   206.
##  6 Male     67.3   152.
##  7 Male     68.8   184.
##  8 Male     68.3   168.
##  9 Male     67.0   176.
## 10 Male     63.5   156.
## # ... with 9,990 more rows
…
male %>% 
  select(Height_kg, Weight_cm)
## # A tibble: 100 x 2
##    Height_kg Weight_cm
##        <dbl>     <dbl>
##  1      182.      89.4
##  2      174.      80.9
##  3      175.      83.9
##  4      182.      86.6
##  5      177.      82.9
##  6      184.     101. 
##  7      185.      84.8
##  8      169.      79.2
##  9      170.      74.0
## 10      187.      94.5
## # ... with 90 more rows

Додамо розрахункові значення \(Height_{kg}^2\) та \(Height_{kg}*Weight_{cm}\):

male %>% 
  select(Height_kg, Weight_cm) %>% 
  mutate(Height_kg_sq = Height_kg ^ 2,
         Height_Weight = Height_kg * Weight_cm)
## # A tibble: 100 x 4
##    Height_kg Weight_cm Height_kg_sq Height_Weight
##        <dbl>     <dbl>        <dbl>         <dbl>
##  1      182.      89.4       33197.        16286.
##  2      174.      80.9       30197.        14062.
##  3      175.      83.9       30469.        14644.
##  4      182.      86.6       33302.        15799.
##  5      177.      82.9       31233.        14651.
##  6      184.     101.        33907.        18675.
##  7      185.      84.8       34065.        15647.
##  8      169.      79.2       28566.        13385.
##  9      170.      74.0       28917.        12583.
## 10      187.      94.5       34841.        17637.
## # ... with 90 more rows
…
Результат моделі male_ols зберігається у вигляді списку, з якого ми можемо отримати залишки, параметри моделі, модельні значення тощо:

# Оцінки параметрів моделі
male_ols$coefficients
## (Intercept)   Height_kg 
##  -95.998717    1.024054
# Модельні значення в тібблі
as_tibble(male_ols$fitted.values)
## # A tibble: 100 x 1
##    value
##    <dbl>
##  1  90.6
##  2  82.0
##  3  82.8
##  4  90.9
##  5  85.0
##  6  92.6
##  7  93.0
##  8  77.1
##  9  78.1
## 10  95.1
## # ... with 90 more rows
…
